Data Story: the Collision of Lyrics and Emotions
…
lyric<-dt_lyrics

#the number of songs in each genre in each year
peak<-lyric %>%
  filter(year>1960) %>%
  filter(genre!='other') %>%
  group_by(genre,year) %>%
  count() %>%
  ungroup(year) %>%
  arrange(genre,desc(n))

peak

## # A tibble: 372 x 3
##    genre    year     n
##    <chr>   <dbl> <int>
##  1 Country  2007  3260
##  2 Country  2006  1410
##  3 Country  2008   413
##  4 Country  2013   329
##  5 Country  2014   252
##  6 Country  2015   227
##  7 Country  2010   216
##  8 Country  2016   194
##  9 Country  2011   175
## 10 Country  2012   163
## # ... with 362 more rows
…
rock.number_artist<-rock %>%
  group_by(artist) %>%
  count() %>%
  arrange(desc(n))

rock.number_artist

## # A tibble: 1,161 x 2
## # Groups:   artist [1,161]
##    artist                n
##    <chr>             <int>
##  1 elton-john          619
##  2 bob-dylan           563
##  3 elvis-costello      505
##  4 david-bowie         501
##  5 bruce-springsteen   491
##  6 eric-clapton        437
##  7 beach-boys          407
##  8 chicago             372
##  9 beatles             370
## 10 bon-jovi            369
## # ... with 1,151 more rows
…
